RV32I/testbench/vcd/andi.vcd
$version Generated by VerilatedVcd $end
$date Sat Oct 26 19:08:30 2024
 $end
$timescale   1ps $end

 $scope module TOP $end
  $var wire  1 [! i_clk $end
  $var wire  1 \! i_rstn $end
  $var wire 32 V! o_riscv_dmem_addr [31:0] $end
  $var wire  4 X! o_riscv_dmem_byte_sel [3:0] $end
  $var wire 32 Z! o_riscv_dmem_rd_data [31:0] $end
  $var wire 32 Y! o_riscv_dmem_wr_data [31:0] $end
  $var wire  1 W! o_riscv_dmem_wr_en $end
  $var wire 32 U! o_riscv_imem_instr [31:0] $end
  $var wire 32 T! o_riscv_imem_pc [31:0] $end
  $scope module riscv_top $end
   $var wire 32 o! REGISTER_INIT [31:0] $end
   $var wire  1 [! i_clk $end
   $var wire  1 \! i_rstn $end
   $var wire 32 V! o_riscv_dmem_addr [31:0] $end
   $var wire  4 X! o_riscv_dmem_byte_sel [3:0] $end
   $var wire 32 Z! o_riscv_dmem_rd_data [31:0] $end
   $var wire 32 Y! o_riscv_dmem_wr_data [31:0] $end
   $var wire  1 W! o_riscv_dmem_wr_en $end
   $var wire 32 U! o_riscv_imem_instr [31:0] $end
   $var wire 32 T! o_riscv_imem_pc [31:0] $end
   $scope module u_riscv_cpu $end
    $var wire 32 o! REGISTER_INIT [31:0] $end
    $var wire  4 +! alu_ctrl [3:0] $end
    $var wire  1 &! alu_zero $end
    $var wire 32 ,! dmem_addr [31:0] $end
    $var wire  4 `! dmem_byte_sel [3:0] $end
    $var wire 32 a! dmem_rd_data [31:0] $end
    $var wire 32 -! dmem_wr_data [31:0] $end
    $var wire  1 _! dmem_wr_en $end
    $var wire  1 [! i_clk $end
    $var wire 32 Z! i_cpu_dmem_rd_data [31:0] $end
    $var wire 32 U! i_cpu_imem_instr [31:0] $end
    $var wire  1 \! i_rstn $end
    $var wire 32 V! o_cpu_dmem_addr [31:0] $end
    $var wire  4 X! o_cpu_dmem_byte_sel [3:0] $end
    $var wire 32 Y! o_cpu_dmem_wr_data [31:0] $end
    $var wire  1 W! o_cpu_dmem_wr_en $end
    $var wire 32 T! o_cpu_imem_pc [31:0] $end
    $var wire  1 ^! reg_wr_en $end
    $var wire  1 ]! src_alu_a $end
    $var wire  1 *! src_alu_b $end
    $var wire  3 (! src_imm [2:0] $end
    $var wire  2 '! src_pc [1:0] $end
    $var wire  2 )! src_rd [1:0] $end
    $scope module u_riscv_ctrl $end
     $var wire 256 B! DEBUG_INSTR [255:0] $end
     $var wire  1 &! i_ctrl_alu_zero $end
     $var wire  3 j! i_ctrl_funct3 [2:0] $end
     $var wire  1 k! i_ctrl_funct7_5b $end
     $var wire  7 i! i_ctrl_opcode [6:0] $end
     $var wire  4 +! o_ctrl_alu_ctrl [3:0] $end
     $var wire  4 `! o_ctrl_mem_byte_sel [3:0] $end
     $var wire  1 _! o_ctrl_mem_wr_en $end
     $var wire  1 ^! o_ctrl_reg_wr_en $end
     $var wire  1 ]! o_ctrl_src_alu_a $end
     $var wire  1 *! o_ctrl_src_alu_b $end
     $var wire  3 (! o_ctrl_src_imm [2:0] $end
     $var wire  2 '! o_ctrl_src_pc [1:0] $end
     $var wire  2 )! o_ctrl_src_rd [1:0] $end
     $var wire  1 l! take_branch $end
    $upscope $end
    $scope module u_riscv_datapath $end
     $var wire 32 o! REGISTER_INIT [31:0] $end
     $var wire 32 0! alu_a [31:0] $end
     $var wire 32 1! alu_b [31:0] $end
     $var wire 32 ,! alu_result [31:0] $end
     $var wire  1 [! i_clk $end
     $var wire  4 +! i_dp_alu_ctrl [3:0] $end
     $var wire 32 U! i_dp_instr [31:0] $end
     $var wire 32 a! i_dp_mem_rd_data [31:0] $end
     $var wire  1 ^! i_dp_reg_wr_en $end
     $var wire  1 ]! i_dp_src_alu_a $end
     $var wire  1 *! i_dp_src_alu_b $end
     $var wire  3 (! i_dp_src_imm [2:0] $end
     $var wire  2 '! i_dp_src_pc [1:0] $end
     $var wire  2 )! i_dp_src_rd [1:0] $end
     $var wire  1 \! i_rstn $end
     $var wire 32 /! immediate [31:0] $end
     $var wire 64 5! mux_concat_alu_a [63:0] $end
     $var wire 64 7! mux_concat_alu_b [63:0] $end
     $var wire 96 2! mux_concat_pc [95:0] $end
     $var wire 128 K! mux_concat_rd [127:0] $end
     $var wire  1 &! o_dp_alu_zero $end
     $var wire 32 ,! o_dp_mem_addr [31:0] $end
     $var wire 32 -! o_dp_mem_wr_data [31:0] $end
     $var wire 32 T! o_dp_pc [31:0] $end
     $var wire 32 .! pc_next [31:0] $end
     $var wire 32 b! pc_plus_4 [31:0] $end
     $var wire 32 c! pc_plus_imm [31:0] $end
     $var wire 32 d! regfile_rd_data [31:0] $end
     $var wire 32 e! regfile_rs1_data [31:0] $end
     $var wire 32 -! regfile_rs2_data [31:0] $end
     $scope module u_riscv_adder_pc_plus_4 $end
      $var wire 32 T! i_adder_a [31:0] $end
      $var wire 32 r! i_adder_b [31:0] $end
      $var wire 32 b! o_adder_sum [31:0] $end
     $upscope $end
     $scope module u_riscv_adder_pc_plus_imm $end
      $var wire 32 T! i_adder_a [31:0] $end
      $var wire 32 /! i_adder_b [31:0] $end
      $var wire 32 c! o_adder_sum [31:0] $end
     $upscope $end
     $scope module u_riscv_alu $end
      $var wire 64 @! DEBUG_ALU_OP [63:0] $end
      $var wire 32 0! i_alu_a [31:0] $end
      $var wire 32 1! i_alu_b [31:0] $end
      $var wire  4 +! i_alu_ctrl [3:0] $end
      $var wire 32 ,! o_alu_result [31:0] $end
      $var wire  1 &! o_alu_zero $end
     $upscope $end
     $scope module u_riscv_immext $end
      $var wire 32 U! i_imm_instr [31:0] $end
      $var wire  3 (! i_imm_src [2:0] $end
      $var wire 32 /! o_imm_ext [31:0] $end
     $upscope $end
     $scope module u_riscv_mux_alu_a $end
      $var wire 32 s! N_MUX_IN [31:0] $end
      $var wire 64 5! i_mux_concat_data [63:0] $end
      $var wire  1 ]! i_mux_sel [0:0] $end
      $var wire 32 <! mux_input_arr(0) [31:0] $end
      $var wire 32 =! mux_input_arr(1) [31:0] $end
      $var wire 32 0! o_mux_data [31:0] $end
     $upscope $end
     $scope module u_riscv_mux_alu_b $end
      $var wire 32 s! N_MUX_IN [31:0] $end
      $var wire 64 7! i_mux_concat_data [63:0] $end
      $var wire  1 *! i_mux_sel [0:0] $end
      $var wire 32 >! mux_input_arr(0) [31:0] $end
      $var wire 32 ?! mux_input_arr(1) [31:0] $end
      $var wire 32 1! o_mux_data [31:0] $end
     $upscope $end
     $scope module u_riscv_mux_pc $end
      $var wire 32 p! N_MUX_IN [31:0] $end
      $var wire 96 2! i_mux_concat_data [95:0] $end
      $var wire  2 '! i_mux_sel [1:0] $end
      $var wire 32 9! mux_input_arr(0) [31:0] $end
      $var wire 32 :! mux_input_arr(1) [31:0] $end
      $var wire 32 ;! mux_input_arr(2) [31:0] $end
      $var wire 32 .! o_mux_data [31:0] $end
     $upscope $end
     $scope module u_riscv_mux_regfile_rd_data $end
      $var wire 32 t! N_MUX_IN [31:0] $end
      $var wire 128 K! i_mux_concat_data [127:0] $end
      $var wire  2 )! i_mux_sel [1:0] $end
      $var wire 32 O! mux_input_arr(0) [31:0] $end
      $var wire 32 P! mux_input_arr(1) [31:0] $end
      $var wire 32 Q! mux_input_arr(2) [31:0] $end
      $var wire 32 R! mux_input_arr(3) [31:0] $end
      $var wire 32 d! o_mux_data [31:0] $end
     $upscope $end
     $scope module u_riscv_regfile $end
      $var wire  1 [! i_clk $end
      $var wire  5 h! i_regfile_rd_addr [4:0] $end
      $var wire 32 d! i_regfile_rd_data [31:0] $end
      $var wire  1 ^! i_regfile_rd_wen $end
      $var wire  5 f! i_regfile_rs1_addr [4:0] $end
      $var wire  5 g! i_regfile_rs2_addr [4:0] $end
      $var wire 32 e! o_regfile_rs1_data [31:0] $end
      $var wire 32 -! o_regfile_rs2_data [31:0] $end
      $var wire 32 c registers(0) [31:0] $end
      $var wire 32 d registers(1) [31:0] $end
      $var wire 32 m registers(10) [31:0] $end
      $var wire 32 n registers(11) [31:0] $end
      $var wire 32 o registers(12) [31:0] $end
      $var wire 32 p registers(13) [31:0] $end
      $var wire 32 q registers(14) [31:0] $end
      $var wire 32 r registers(15) [31:0] $end
      $var wire 32 s registers(16) [31:0] $end
      $var wire 32 t registers(17) [31:0] $end
      $var wire 32 u registers(18) [31:0] $end
      $var wire 32 v registers(19) [31:0] $end
      $var wire 32 e registers(2) [31:0] $end
      $var wire 32 w registers(20) [31:0] $end
      $var wire 32 x registers(21) [31:0] $end
      $var wire 32 y registers(22) [31:0] $end
      $var wire 32 z registers(23) [31:0] $end
      $var wire 32 { registers(24) [31:0] $end
      $var wire 32 | registers(25) [31:0] $end
      $var wire 32 } registers(26) [31:0] $end
      $var wire 32 ~ registers(27) [31:0] $end
      $var wire 32 !! registers(28) [31:0] $end
      $var wire 32 "! registers(29) [31:0] $end
      $var wire 32 f registers(3) [31:0] $end
      $var wire 32 #! registers(30) [31:0] $end
      $var wire 32 $! registers(31) [31:0] $end
      $var wire 32 g registers(4) [31:0] $end
      $var wire 32 h registers(5) [31:0] $end
      $var wire 32 i registers(6) [31:0] $end
      $var wire 32 j registers(7) [31:0] $end
      $var wire 32 k registers(8) [31:0] $end
      $var wire 32 l registers(9) [31:0] $end
     $upscope $end
     $scope module u_riscv_register_pc $end
      $var wire 32 o! REGISTER_INIT [31:0] $end
      $var wire  1 [! i_clk $end
      $var wire 32 .! i_register_d [31:0] $end
      $var wire  1 q! i_register_en $end
      $var wire  1 \! i_rstn $end
      $var wire 32 T! o_register_q [31:0] $end
     $upscope $end
    $upscope $end
    $scope module u_riscv_dmem_interface $end
     $var wire 32 S! byte_aligned_dmem_rd_data [31:0] $end
     $var wire  4 J! dmem_intf_strb [3:0] $end
     $var wire  1 [! i_clk $end
     $var wire 32 ,! i_dmem_intf_addr [31:0] $end
     $var wire  4 `! i_dmem_intf_byte_sel [3:0] $end
     $var wire  3 j! i_dmem_intf_func3 [2:0] $end
     $var wire 32 Z! i_dmem_intf_rd_data [31:0] $end
     $var wire  1 _! i_dmem_intf_wen $end
     $var wire 32 -! i_dmem_intf_wr_data [31:0] $end
     $var wire 32 V! o_dmem_intf_addr [31:0] $end
     $var wire  4 X! o_dmem_intf_byte_sel [3:0] $end
     $var wire 32 a! o_dmem_intf_rd_data [31:0] $end
     $var wire  1 W! o_dmem_intf_wen $end
     $var wire 32 Y! o_dmem_intf_wr_data [31:0] $end
    $upscope $end
   $upscope $end
   $scope module u_riscv_dmem $end
    $var wire 1024 C FILE_DATA_MIF [1023:0] $end
    $var wire 32 %! i [31:0] $end
    $var wire  1 [! i_clk $end
    $var wire 14 n! i_dmem_addr [13:0] $end
    $var wire  4 X! i_dmem_byte_sel [3:0] $end
    $var wire 32 Y! i_dmem_data [31:0] $end
    $var wire  1 W! i_dmem_wr_en $end
    $var wire 32 Z! o_dmem_data [31:0] $end
   $upscope $end
   $scope module u_riscv_imem $end
    $var wire 1024 # FILE_TEXT_MIF [1023:0] $end
    $var wire  1 u! i_clk $end
    $var wire 14 m! i_imem_addr [13:0] $end
    $var wire 32 U! o_imem_data [31:0] $end
   $upscope $end
  $upscope $end
 $upscope $end
$enddefinitions $end


#0
b0000000000000000000000000000000000000000000000000000000000000000000000000000000000000000000000000000000000000000000000000000000000000000000000000000000000000000000000000000000000000000000000000000000000000000000000000000000000000000000000000000000000000000000000000000000000000000000000000000000000000000000000000000000000000000000000000000000000000000000000000000000000000000000000000000000000000000000000000000000000000000000000000000000000000000000000000000000000000000000000000000000000000000000000000000000000000000000000000000000000000000000000000000000000101111011010000110111101101101011001010010111101101111011010110111001101101010001011110111101001100001011100100110000101101101010111110111010001110010011000010110100101101110011010010110011100101111010100100101011000110011001100100100100100101111011101000110010101110011011101000110001001100101011011100110001101101000001011110110110101101001011001100010111101100001011011100110010001101001001011100111010001100101011110000111010000101110011011010110100101100110 #
b0000000000000000000000000000000000000000000000000000000000000000000000000000000000000000000000000000000000000000000000000000000000000000000000000000000000000000000000000000000000000000000000000000000000000000000000000000000000000000000000000000000000000000000000000000000000000000000000000000000000000000000000000000000000000000000000000000000000000000000000000000000000000000000000000000000000000000000000000000000000000000000000000000000000000000000000000000000000000000000000000000000000000000000000000000000000000000000000000000000000000000000000000000000000101111011010000110111101101101011001010010111101101111011010110111001101101010001011110111101001100001011100100110000101101101010111110111010001110010011000010110100101101110011010010110011100101111010100100101011000110011001100100100100100101111011101000110010101110011011101000110001001100101011011100110001101101000001011110110110101101001011001100010111101100001011011100110010001101001001011100110010001100001011101000110000100101110011011010110100101100110 C
b00000000000000000000000000000000 c
b00000000000000000000000000000000 d
b00000000000000000000000000000000 e
b00000000000000000000000000000000 f
b00000000000000000000000000000000 g
b00000000000000000000000000000000 h
b00000000000000000000000000000000 i
b00000000000000000000000000000000 j
b00000000000000000000000000000000 k
b00000000000000000000000000000000 l
b00000000000000000000000000000000 m
b00000000000000000000000000000000 n
b00000000000000000000000000000000 o
b00000000000000000000000000000000 p
b00000000000000000000000000000000 q
b00000000000000000000000000000000 r
b00000000000000000000000000000000 s
b00000000000000000000000000000000 t
b00000000000000000000000000000000 u
b00000000000000000000000000000000 v
b00000000000000000000000000000000 w
b00000000000000000000000000000000 x
b00000000000000000000000000000000 y
b00000000000000000000000000000000 z
b00000000000000000000000000000000 {
b00000000000000000000000000000000 |
b00000000000000000000000000000000 }
b00000000000000000000000000000000 ~
b00000000000000000000000000000000 !!
b00000000000000000000000000000000 "!
b00000000000000000000000000000000 #!
b00000000000000000000000000000000 $!
b00000000000000000000000000000000 %!
0&!
b00 '!
b001 (!
b00 )!
1*!
b0000 +!
b00000000000000000000000000000010 ,!
b00000000000000000000000000000000 -!
b00000000000000000000000000000100 .!
b00000000000000000000000000000010 /!
b00000000000000000000000000000000 0!
b00000000000000000000000000000010 1!
b000000000000000000000000000000100000000000000000000000000000001000000000000000000000000000000100 2!
b0000000000000000000000000000000000000000000000000000000000000000 5!
b0000000000000000000000000000001000000000000000000000000000000000 7!
b00000000000000000000000000000100 9!
b00000000000000000000000000000010 :!
b00000000000000000000000000000010 ;!
b00000000000000000000000000000000 <!
b00000000000000000000000000000000 =!
b00000000000000000000000000000000 >!
b00000000000000000000000000000010 ?!
b0000000000000000000000000100000101000100010001000010000000100000 @!
b0000000000000000000000000000000000000000000000000000000000000000000000000000000000000000000000000000000000000000000000000000000000000000000000000000000000000000000000000000000000000000000000000000000000000000000000000000000001100001011001000110010001101001 B!
b0001 J!
b00000000000000000000000000000010000000000000000000000000000001000000000000000000000000000000000000000000000000000000000000000010 K!
b00000000000000000000000000000010 O!
b00000000000000000000000000000000 P!
b00000000000000000000000000000100 Q!
b00000000000000000000000000000010 R!
b00000000000000000000000000000000 S!
b00000000000000000000000000000000 T!
b00000000001000000000111000010011 U!
b00000000000000000000000000000010 V!
0W!
b0100 X!
b00000000000000000000000000000000 Y!
b00000000000000000000000000000000 Z!
1[!
0\!
0]!
1^!
0_!
b1111 `!
b00000000000000000000000000000000 a!
b00000000000000000000000000000100 b!
b00000000000000000000000000000010 c!
b00000000000000000000000000000010 d!
b00000000000000000000000000000000 e!
b00000 f!
b00010 g!
b11100 h!
b0010011 i!
b000 j!
0k!
0l!
b00000000000000 m!
b00000000000000 n!
b00000000000000000000000000000000 o!
b00000000000000000000000000000011 p!
1q!
b00000000000000000000000000000100 r!
b00000000000000000000000000000010 s!
b00000000000000000000000000000100 t!
0u!
#1
0[!
#2
b00000000000000000000000000000010 !!
1[!
#3
0[!
#4
1[!
#5
0[!
#6
1[!
#7
0[!
#8
1[!
#9
0[!
#10
1[!
#11
0[!
1\!
#12
1&!
b101 (!
b11 )!
0*!
b00000000000000000000000000000000 ,!
b00000000000000000000000000001000 .!
b11111111000000010000000000000000 /!
b00000000000000000000000000000000 1!
b000000000000000000000000000000001111111100000001000000000000010000000000000000000000000000001000 2!
b0000000000000000000000000000010000000000000000000000000000000000 5!
b1111111100000001000000000000000000000000000000000000000000000000 7!
b00000000000000000000000000001000 9!
b11111111000000010000000000000100 :!
b00000000000000000000000000000000 ;!
b00000000000000000000000000000100 =!
b11111111000000010000000000000000 ?!
b0000000000000000000000000000000000000000000000000000000000000000000000000000000000000000000000000000000000000000000000000000000000000000000000000000000000000000000000000000000000000000000000000000000000000000000000000000000000000000011011000111010101101001 B!
b11111111000000010000000000000000000000000000000000000000000010000000000000000000000000000000000000000000000000000000000000000000 K!
b00000000000000000000000000000000 O!
b00000000000000000000000000001000 Q!
b11111111000000010000000000000000 R!
b00000000000000000000000000000100 T!
b11111111000000010000011010110111 U!
b00000000000000000000000000000000 V!
b0001 X!
1[!
b00000000000000000000000000001000 b!
b11111111000000010000000000000100 c!
b11111111000000010000000000000000 d!
b00010 f!
b10000 g!
b01101 h!
b0110111 i!
1k!
b00000000000001 m!
#13
0[!
#14
b11111111000000010000000000000000 p
0&!
b001 (!
b00 )!
1*!
b11111111000000001111111100000000 ,!
b00000000000000000000000000001100 .!
b11111111111111111111111100000000 /!
b11111111000000010000000000000000 0!
b11111111111111111111111100000000 1!
b111111110000000011111111000000001111111111111111111111110000100000000000000000000000000000001100 2!
b0000000000000000000000000000100011111111000000010000000000000000 5!
b1111111111111111111111110000000000000000000000000000000000000000 7!
b00000000000000000000000000001100 9!
b11111111111111111111111100001000 :!
b11111111000000001111111100000000 ;!
b11111111000000010000000000000000 <!
b00000000000000000000000000001000 =!
b11111111111111111111111100000000 ?!
b0000000000000000000000000000000000000000000000000000000000000000000000000000000000000000000000000000000000000000000000000000000000000000000000000000000000000000000000000000000000000000000000000000000000000000000000000000000001100001011001000110010001101001 B!
b11111111111111111111111100000000000000000000000000000000000011000000000000000000000000000000000011111111000000001111111100000000 K!
b11111111000000001111111100000000 O!
b00000000000000000000000000001100 Q!
b11111111111111111111111100000000 R!
b00000000000000000000000000001000 T!
b11110000000001101000011010010011 U!
b11111111000000001111111100000000 V!
1[!
b00000000000000000000000000001100 b!
b11111111111111111111111100001000 c!
b11111111000000001111111100000000 d!
b11111111000000010000000000000000 e!
b01101 f!
b00000 g!
b0010011 i!
b00000000000010 m!
b11111111000000 n!
#15
0[!
#16
b11111111000000001111111100000000 p
b0111 +!
b00000000000000000000000000010000 .!
b11111111111111111111111100001111 /!
b11111111000000001111111100000000 0!
b11111111111111111111111100001111 1!
b111111110000000011111111000000001111111111111111111111110001101100000000000000000000000000010000 2!
b0000000000000000000000000000110011111111000000001111111100000000 5!
b1111111111111111111111110000111100000000000000000000000000000000 7!
b00000000000000000000000000010000 9!
b11111111111111111111111100011011 :!
b11111111000000001111111100000000 <!
b00000000000000000000000000001100 =!
b11111111111111111111111100001111 ?!
b0000000000000000000000000100000101001110010001000010000000100000 @!
b0000000000000000000000000000000000000000000000000000000000000000000000000000000000000000000000000000000000000000000000000000000000000000000000000000000000000000000000000000000000000000000000000000000000000000000000000000000001100001011011100110010001101001 B!
b1111 J!
b11111111111111111111111100001111000000000000000000000000000100000000000000000000000000000000000011111111000000001111111100000000 K!
b00000000000000000000000000010000 Q!
b11111111111111111111111100001111 R!
b00000000000000000000000000001100 T!
b11110000111101101111011100010011 U!
b1111 X!
1[!
b00000000000000000000000000010000 b!
b11111111111111111111111100011011 c!
b11111111000000001111111100000000 e!
b01111 g!
b01110 h!
b111 j!
b00000000000011 m!
#17
0[!
#18
b11111111000000001111111100000000 q
1&!
b101 (!
b11 )!
0*!
b0000 +!
b00000000000000000000000000000000 ,!
b00000000000000000000000000010100 .!
b11111111000000010000000000000000 /!
b00000000000000000000000000000000 0!
b00000000000000000000000000000000 1!
b000000000000000000000000000000001111111100000001000000000001000000000000000000000000000000010100 2!
b0000000000000000000000000001000000000000000000000000000000000000 5!
b1111111100000001000000000000000000000000000000000000000000000000 7!
b00000000000000000000000000010100 9!
b11111111000000010000000000010000 :!
b00000000000000000000000000000000 ;!
b00000000000000000000000000000000 <!
b00000000000000000000000000010000 =!
b11111111000000010000000000000000 ?!
b0000000000000000000000000100000101000100010001000010000000100000 @!
b0000000000000000000000000000000000000000000000000000000000000000000000000000000000000000000000000000000000000000000000000000000000000000000000000000000000000000000000000000000000000000000000000000000000000000000000000000000000000000011011000111010101101001 B!
b0001 J!
b11111111000000010000000000000000000000000000000000000000000101000000000000000000000000000000000000000000000000000000000000000000 K!
b00000000000000000000000000000000 O!
b00000000000000000000000000010100 Q!
b11111111000000010000000000000000 R!
b00000000000000000000000000010000 T!
b11111111000000010000001110110111 U!
b00000000000000000000000000000000 V!
b0001 X!
1[!
b00000000000000000000000000010100 b!
b11111111000000010000000000010000 c!
b11111111000000010000000000000000 d!
b00000000000000000000000000000000 e!
b00010 f!
b10000 g!
b00111 h!
b0110111 i!
b000 j!
b00000000000100 m!
b00000000000000 n!
#19
0[!
#20
b11111111000000010000000000000000 j
0&!
b001 (!
b00 )!
1*!
b11111111000000001111111100000000 ,!
b00000000000000000000000000011000 .!
b11111111111111111111111100000000 /!
b11111111000000010000000000000000 0!
b11111111111111111111111100000000 1!
b111111110000000011111111000000001111111111111111111111110001010000000000000000000000000000011000 2!
b0000000000000000000000000001010011111111000000010000000000000000 5!
b1111111111111111111111110000000000000000000000000000000000000000 7!
b00000000000000000000000000011000 9!
b11111111111111111111111100010100 :!
b11111111000000001111111100000000 ;!
b11111111000000010000000000000000 <!
b00000000000000000000000000010100 =!
b11111111111111111111111100000000 ?!
b0000000000000000000000000000000000000000000000000000000000000000000000000000000000000000000000000000000000000000000000000000000000000000000000000000000000000000000000000000000000000000000000000000000000000000000000000000000001100001011001000110010001101001 B!
b11111111111111111111111100000000000000000000000000000000000110000000000000000000000000000000000011111111000000001111111100000000 K!
b11111111000000001111111100000000 O!
b00000000000000000000000000011000 Q!
b11111111111111111111111100000000 R!
b00000000000000000000000000010100 T!
b11110000000000111000001110010011 U!
b11111111000000001111111100000000 V!
1[!
b00000000000000000000000000011000 b!
b11111111111111111111111100010100 c!
b11111111000000001111111100000000 d!
b11111111000000010000000000000000 e!
b00111 f!
b00000 g!
b0010011 i!
b00000000000101 m!
b11111111000000 n!
#21
0[!
#22
b11111111000000001111111100000000 j
1&!
b011 (!
0*!
b1000 +!
b00000000000000000000000000000000 ,!
b11111111000000001111111100000000 -!
b00000000000000000000000000011100 .!
b00000000000000000000000110101000 /!
b11111111000000001111111100000000 0!
b11111111000000001111111100000000 1!
b000000000000000000000000000000000000000000000000000000011100000000000000000000000000000000011100 2!
b0000000000000000000000000001100011111111000000001111111100000000 5!
b0000000000000000000000011010100011111111000000001111111100000000 7!
b00000000000000000000000000011100 9!
b00000000000000000000000111000000 :!
b00000000000000000000000000000000 ;!
b11111111000000001111111100000000 <!
b00000000000000000000000000011000 =!
b11111111000000001111111100000000 >!
b00000000000000000000000110101000 ?!
b0000000000000000000000000000000001010011010101010100001000001001 @!
b0000000000000000000000000000000000000000000000000000000000000000000000000000000000000000000000000000000000000000000000000000000000000000000000000000000000000000000000000000000000000000000000000000000000000000000000000000000000000000011000100110111001100101 B!
b0011 J!
b00000000000000000000000110101000000000000000000000000000000111000000000000000000000000000000000000000000000000000000000000000000 K!
b00000000000000000000000000000000 O!
b00000000000000000000000000011100 Q!
b00000000000000000000000110101000 R!
b00000000000000000000000000011000 T!
b00011010011101110001010001100011 U!
b00000000000000000000000000000000 V!
b0011 X!
b11111111000000001111111100000000 Y!
1[!
0^!
b00000000000000000000000000011100 b!
b00000000000000000000000111000000 c!
b00000000000000000000000000000000 d!
b11111111000000001111111100000000 e!
b01110 f!
b00111 g!
b01000 h!
b1100011 i!
b001 j!
0k!
b00000000000110 m!
b00000000000000 n!
#23
0[!
#24
0&!
b001 (!
1*!
b0000 +!
b00000000000000000000000000000011 ,!
b00000000000000000000000000000000 -!
b00000000000000000000000000100000 .!
b00000000000000000000000000000011 /!
b00000000000000000000000000000000 0!
b00000000000000000000000000000011 1!
b000000000000000000000000000000110000000000000000000000000001111100000000000000000000000000100000 2!
b0000000000000000000000000001110000000000000000000000000000000000 5!
b0000000000000000000000000000001100000000000000000000000000000000 7!
b00000000000000000000000000100000 9!
b00000000000000000000000000011111 :!
b00000000000000000000000000000011 ;!
b00000000000000000000000000000000 <!
b00000000000000000000000000011100 =!
b00000000000000000000000000000000 >!
b00000000000000000000000000000011 ?!
b0000000000000000000000000100000101000100010001000010000000100000 @!
b0000000000000000000000000000000000000000000000000000000000000000000000000000000000000000000000000000000000000000000000000000000000000000000000000000000000000000000000000000000000000000000000000000000000000000000000000000000001100001011001000110010001101001 B!
b0001 J!
b00000000000000000000000000000011000000000000000000000000001000000000000000000000000000000000000000000000000000000000000000000011 K!
b00000000000000000000000000000011 O!
b00000000000000000000000000100000 Q!
b00000000000000000000000000000011 R!
b00000000000000000000000000011100 T!
b00000000001100000000111000010011 U!
b00000000000000000000000000000011 V!
b1000 X!
b00000000000000000000000000000000 Y!
1[!
1^!
b00000000000000000000000000100000 b!
b00000000000000000000000000011111 c!
b00000000000000000000000000000011 d!
b00000000000000000000000000000000 e!
b00000 f!
b00011 g!
b11100 h!
b0010011 i!
b000 j!
b00000000000111 m!
#25
0[!
#26
b00000000000000000000000000000011 !!
1&!
b101 (!
b11 )!
0*!
b00000000000000000000000000000000 ,!
b00000000000000000000000000100100 .!
b00001111111100000001000000000000 /!
b00000000000000000000000000000000 1!
b000000000000000000000000000000000000111111110000000100000010000000000000000000000000000000100100 2!
b0000000000000000000000000010000000000000000000000000000000000000 5!
b0000111111110000000100000000000000000000000000000000000000000000 7!
b00000000000000000000000000100100 9!
b00001111111100000001000000100000 :!
b00000000000000000000000000000000 ;!
b00000000000000000000000000100000 =!
b00001111111100000001000000000000 ?!
b0000000000000000000000000000000000000000000000000000000000000000000000000000000000000000000000000000000000000000000000000000000000000000000000000000000000000000000000000000000000000000000000000000000000000000000000000000000000000000011011000111010101101001 B!
b0011 J!
b00001111111100000001000000000000000000000000000000000000001001000000000000000000000000000000000000000000000000000000000000000000 K!
b00000000000000000000000000000000 O!
b00000000000000000000000000100100 Q!
b00001111111100000001000000000000 R!
b00000000000000000000000000100000 T!
b00001111111100000001011010110111 U!
b00000000000000000000000000000000 V!
b0011 X!
1[!
b00000000000000000000000000100100 b!
b00001111111100000001000000100000 c!
b00001111111100000001000000000000 d!
b11111 g!
b01101 h!
b0110111 i!
b001 j!
b00000000001000 m!
#27
0[!
#28
b00001111111100000001000000000000 p
0&!
b001 (!
b00 )!
1*!
b00001111111100000000111111110000 ,!
b00000000000000000000000000101000 .!
b11111111111111111111111111110000 /!
b00001111111100000001000000000000 0!
b11111111111111111111111111110000 1!
b000011111111000000001111111100000000000000000000000000000001010000000000000000000000000000101000 2!
b0000000000000000000000000010010000001111111100000001000000000000 5!
b1111111111111111111111111111000000000000000000000000000000000000 7!
b00000000000000000000000000101000 9!
b00000000000000000000000000010100 :!
b00001111111100000000111111110000 ;!
b00001111111100000001000000000000 <!
b00000000000000000000000000100100 =!
b11111111111111111111111111110000 ?!
b0000000000000000000000000000000000000000000000000000000000000000000000000000000000000000000000000000000000000000000000000000000000000000000000000000000000000000000000000000000000000000000000000000000000000000000000000000000001100001011001000110010001101001 B!
b0001 J!
b11111111111111111111111111110000000000000000000000000000001010000000000000000000000000000000000000001111111100000000111111110000 K!
b00001111111100000000111111110000 O!
b00000000000000000000000000101000 Q!
b11111111111111111111111111110000 R!
b00000000000000000000000000100100 T!
b11111111000001101000011010010011 U!
b00001111111100000000111111110000 V!
b0001 X!
1[!
b00000000000000000000000000101000 b!
b00000000000000000000000000010100 c!
b00001111111100000000111111110000 d!
b00001111111100000001000000000000 e!
b01101 f!
b10000 g!
b0010011 i!
b000 j!
1k!
b00000000001001 m!
b00001111111100 n!
#29
0[!
#30
b00001111111100000000111111110000 p
b0111 +!
b00000000000000000000000011110000 ,!
b00000000000000000000000000101100 .!
b00000000000000000000000011110000 /!
b00001111111100000000111111110000 0!
b00000000000000000000000011110000 1!
b000000000000000000000000111100000000000000000000000000010001100000000000000000000000000000101100 2!
b0000000000000000000000000010100000001111111100000000111111110000 5!
b0000000000000000000000001111000000000000000000000000000000000000 7!
b00000000000000000000000000101100 9!
b00000000000000000000000100011000 :!
b00000000000000000000000011110000 ;!
b00001111111100000000111111110000 <!
b00000000000000000000000000101000 =!
b00000000000000000000000011110000 ?!
b0000000000000000000000000100000101001110010001000010000000100000 @!
b0000000000000000000000000000000000000000000000000000000000000000000000000000000000000000000000000000000000000000000000000000000000000000000000000000000000000000000000000000000000000000000000000000000000000000000000000000000001100001011011100110010001101001 B!
b1111 J!
b00000000000000000000000011110000000000000000000000000000001011000000000000000000000000000000000000000000000000000000000011110000 K!
b00000000000000000000000011110000 O!
b00000000000000000000000000101100 Q!
b00000000000000000000000011110000 R!
b00000000000000000000000000101000 T!
b00001111000001101111011100010011 U!
b00000000000000000000000011110000 V!
b1111 X!
1[!
b00000000000000000000000000101100 b!
b00000000000000000000000100011000 c!
b00000000000000000000000011110000 d!
b00001111111100000000111111110000 e!
b01110 h!
b111 j!
0k!
b00000000001010 m!
b00000000111100 n!
#31
0[!
